wave.vcd
$date
	Sun Mar 22 16:37:26 2026
$end
$version
	Icarus Verilog
$end
$timescale
	1s
$end
$scope module tb_cpu $end
$var reg 1 ! clock $end
$var reg 1 " reset $end
$scope module uut $end
$var wire 1 ! clock $end
$var wire 1 " reset $end
$var parameter 32 # EXEC $end
$var parameter 32 $ FETCH_A $end
$var parameter 32 % FETCH_B $end
$var parameter 32 & FETCH_C $end
$var parameter 32 ' WRITE $end
$var reg 16 ( A [15:0] $end
$var reg 16 ) B [15:0] $end
$var reg 16 * C [15:0] $end
$var reg 16 + pc [15:0] $end
$var reg 16 , result [15:0] $end
$var reg 3 - state [2:0] $end
$var reg 16 . valA [15:0] $end
$var reg 16 / valB [15:0] $end
$upscope $end
$upscope $end
$enddefinitions $end
$comment Show the parameter values. $end
$dumpall
b100 '
b10 &
b1 %
b0 $
b11 #
$end
#0
$dumpvars
bx /
bx .
b0 -
bx ,
b0 +
bx *
bx )
bx (
1"
0!
$end
#5
1!
#10
0!
#15
1!
#20
0!
0"
#25
b1 -
b11 (
1!
#30
0!
#35
b10 -
b100 )
1!
#40
0!
#45
b11 -
b110 *
1!
#50
0!
#55
b100 -
b111 /
b111 .
1!
#60
0!
#65
b0 -
b110 +
b0 ,
1!
#70
0!
#75
b1 -
1!
#80
0!
#85
b10 -
1!
#90
0!
#95
b11 -
b0 *
1!
#100
0!
#105
b100 -
b0 /
1!
#110
0!
#115
b0 -
b0 +
b1111111111111001 ,
1!
#120
0!
#125
b1 -
1!
#130
0!
#135
b10 -
1!
#140
0!
#145
b11 -
b110 *
1!
#150
0!
#155
b100 -
b1111111111111001 /
1!
#160
0!
#165
b0 -
b110 +
b1111111111110010 ,
1!
#170
0!
#175
b1 -
1!
#180
0!
#185
b10 -
1!
#190
0!
#195
b11 -
b0 *
1!
#200
0!
#205
b100 -
b1111111111110010 /
1!
#210
0!
#215
b0 -
b0 +
b1111111111101011 ,
1!
#220
0!
#225
b1 -
1!
#230
0!
#235
b10 -
1!
#240
0!
#245
b11 -
b110 *
1!
#250
0!
#255
b100 -
b1111111111101011 /
1!
#260
0!
#265
b0 -
b110 +
b1111111111100100 ,
1!
#270
0!
#275
b1 -
1!
#280
0!
#285
b10 -
1!
#290
0!
#295
b11 -
b0 *
1!
#300
0!
#305
b100 -
b1111111111100100 /
1!
#310
0!
#315
b0 -
b0 +
b1111111111011101 ,
1!
#320
0!
#325
b1 -
1!
#330
0!
#335
b10 -
1!
#340
0!
#345
b11 -
b110 *
1!
#350
0!
#355
b100 -
b1111111111011101 /
1!
#360
0!
#365
b0 -
b110 +
b1111111111010110 ,
1!
#370
0!
#375
b1 -
1!
#380
0!
#385
b10 -
1!
#390
0!
#395
b11 -
b0 *
1!
#400
0!
#405
b100 -
b1111111111010110 /
1!
#410
0!
#415
b0 -
b0 +
b1111111111001111 ,
1!
#420
0!
#425
b1 -
1!
#430
0!
#435
b10 -
1!
#440
0!
#445
b11 -
b110 *
1!
#450
0!
#455
b100 -
b1111111111001111 /
1!
#460
0!
#465
b0 -
b110 +
b1111111111001000 ,
1!
#470
0!
#475
b1 -
1!
#480
0!
#485
b10 -
1!
#490
0!
#495
b11 -
b0 *
1!
#500
0!
#505
b100 -
b1111111111001000 /
1!
#510
0!
#515
b0 -
b0 +
b1111111111000001 ,
1!
#520
0!
#525
b1 -
1!
#530
0!
#535
b10 -
1!
#540
0!
#545
b11 -
b110 *
1!
#550
0!
#555
b100 -
b1111111111000001 /
1!
#560
0!
#565
b0 -
b110 +
b1111111110111010 ,
1!
#570
0!
#575
b1 -
1!
#580
0!
#585
b10 -
1!
#590
0!
#595
b11 -
b0 *
1!
#600
0!
#605
b100 -
b1111111110111010 /
1!
#610
0!
#615
b0 -
b0 +
b1111111110110011 ,
1!
#620
0!
#625
b1 -
1!
#630
0!
#635
b10 -
1!
#640
0!
#645
b11 -
b110 *
1!
#650
0!
#655
b100 -
b1111111110110011 /
1!
#660
0!
#665
b0 -
b110 +
b1111111110101100 ,
1!
#670
0!
#675
b1 -
1!
#680
0!
#685
b10 -
1!
#690
0!
#695
b11 -
b0 *
1!
#700
0!
#705
b100 -
b1111111110101100 /
1!
#710
0!
#715
b0 -
b0 +
b1111111110100101 ,
1!
#720
0!
#725
b1 -
1!
#730
0!
#735
b10 -
1!
#740
0!
#745
b11 -
b110 *
1!
#750
0!
#755
b100 -
b1111111110100101 /
1!
#760
0!
#765
b0 -
b110 +
b1111111110011110 ,
1!
#770
0!
#775
b1 -
1!
#780
0!
#785
b10 -
1!
#790
0!
#795
b11 -
b0 *
1!
#800
0!
#805
b100 -
b1111111110011110 /
1!
#810
0!
#815
b0 -
b0 +
b1111111110010111 ,
1!
#820
0!
#825
b1 -
1!
#830
0!
#835
b10 -
1!
#840
0!
#845
b11 -
b110 *
1!
#850
0!
#855
b100 -
b1111111110010111 /
1!
#860
0!
#865
b0 -
b110 +
b1111111110010000 ,
1!
#870
0!
#875
b1 -
1!
#880
0!
#885
b10 -
1!
#890
0!
#895
b11 -
b0 *
1!
#900
0!
#905
b100 -
b1111111110010000 /
1!
#910
0!
#915
b0 -
b0 +
b1111111110001001 ,
1!
#920
0!
#925
b1 -
1!
#930
0!
#935
b10 -
1!
#940
0!
#945
b11 -
b110 *
1!
#950
0!
#955
b100 -
b1111111110001001 /
1!
#960
0!
#965
b0 -
b110 +
b1111111110000010 ,
1!
#970
0!
#975
b1 -
1!
#980
0!
#985
b10 -
1!
#990
0!
#995
b11 -
b0 *
1!
#1000
0!
#1005
b100 -
b1111111110000010 /
1!
#1010
0!
#1015
b0 -
b0 +
b1111111101111011 ,
1!
